/*********************************************************
*
*		 	Hakan DEGIRMEN
*		      101044057
*
*		DATE: May 7 2015 Wednesday
*
*		Course: CSE244     HW: 05
***********************************************************/

/**********************************************************
*	The program is sample more and less command in Unix.
***********************************************************/

/**********************************************************
*						COMPILER & RUN
*					_____________________
*
*		gcc -c newWordCount.c
*		gcc newWordCount.o -o newWordCount -lpthread
*		./newWordCount <fileName> 
**********************************************************/


Bu programda verilen directory altındaki dosyalarda kac tane gecerli kelime var onu sayıyor.
Daha önceden olan kelimeleri bulup kaçartane olduğunu logluyor
Thread kullanılmıstır her file için bir thread açılır
her directoryi ne kadar surede turladığı hesaplanmıstır
program ne kadar surede tarama islemi yapıyor onu hesaplamıstır.
her file islemi ne kadar suruyor onu hesaplıyor.
thread senkronizasyonu icin mutex kullanılmıstır.
